1 2 4 
2 3 4 
1 4 0 
8 3 2 
2 1 11 
11 12 9 
9 12 10 
1 13 11 
1 0 13 
11 13 12 
5 6 14 
14 15 8 
8 15 3 
6 16 14 
6 7 16 
14 16 15 
18 0 4 
19 4 3 
18 4 19 
21 3 15 
19 3 21 
22 13 0 
18 24 0 
22 0 24 
2 11 25 
25 11 9 
25 26 2 
26 8 2 
5 14 27 
27 8 26 
27 14 8 
25 9 29 
25 30 26 
30 27 26 
30 25 29 
29 9 35 
9 10 35 
35 10 36 
37 10 12 
35 36 39 
40 10 37 
40 36 10 
39 36 42 
43 36 40 
43 42 36 
27 30 44 
27 44 5 
46 16 7 
44 47 5 
47 52 5 
6 5 53 
5 52 53 
6 53 7 
7 53 55 
46 7 57 
57 7 55 
30 64 44 
64 47 44 
37 12 67 
22 67 13 
67 12 13 
68 15 16 
21 15 68 
46 68 16 
70 18 19 
18 70 24 
70 19 72 
72 19 21 
72 21 73 
73 21 68 
67 22 75 
22 24 75 
70 76 24 
75 24 76 
83 30 29 
83 29 35 
64 30 85 
30 83 85 
35 87 83 
35 39 87 
39 88 87 
39 42 88 
85 83 89 
83 87 89 
87 90 89 
87 88 90 
97 37 67 
102 37 97 
102 40 37 
88 42 105 
106 40 102 
106 43 40 
42 107 105 
43 106 107 
43 107 42 
64 111 47 
111 112 47 
47 112 52 
111 113 112 
46 57 115 
68 46 115 
52 112 118 
53 52 120 
53 120 55 
120 52 118 
121 57 55 
121 55 120 
115 57 123 
123 57 121 
64 85 130 
130 111 64 
85 89 130 
130 132 111 
132 113 111 
89 138 130 
89 90 138 
132 130 139 
130 138 139 
72 140 70 
142 97 67 
67 75 142 
144 73 68 
68 115 144 
140 145 70 
145 76 70 
146 140 72 
73 144 146 
146 72 73 
142 75 151 
75 76 151 
145 152 76 
151 76 152 
132 139 153 
132 153 113 
167 88 105 
90 88 167 
168 90 167 
138 90 168 
102 174 106 
176 174 102 
97 142 176 
176 102 97 
167 105 182 
107 182 105 
174 184 106 
107 186 182 
184 186 106 
106 186 107 
112 113 193 
118 112 193 
113 153 194 
193 113 194 
115 123 196 
144 115 196 
120 118 198 
118 193 199 
198 118 199 
201 121 120 
120 198 201 
202 123 121 
202 121 201 
196 123 204 
204 123 202 
153 139 216 
225 138 168 
139 225 216 
139 138 225 
226 145 140 
146 226 140 
176 142 228 
142 151 228 
144 196 229 
146 144 229 
226 230 145 
230 152 145 
226 146 231 
146 229 231 
228 151 238 
151 152 238 
230 239 152 
238 152 239 
240 153 216 
153 240 194 
251 167 182 
168 167 251 
252 168 251 
225 168 252 
176 256 174 
256 184 174 
256 176 259 
176 228 259 
182 263 251 
182 268 263 
182 186 268 
256 271 184 
186 272 268 
271 272 184 
184 272 186 
240 275 194 
193 194 275 
199 193 275 
275 276 199 
196 204 277 
229 196 277 
198 199 281 
281 201 198 
199 276 281 
282 202 201 
282 201 281 
284 204 202 
284 202 282 
277 204 286 
286 204 284 
298 216 225 
298 240 216 
225 252 305 
305 298 225 
306 230 226 
231 306 226 
259 228 309 
228 238 309 
229 277 310 
231 229 310 
306 311 230 
311 239 230 
306 231 312 
231 310 312 
309 238 320 
238 239 320 
311 321 239 
320 239 321 
323 240 298 
240 323 275 
251 263 331 
331 305 252 
252 251 331 
259 333 256 
333 271 256 
333 259 337 
259 309 337 
263 345 331 
263 268 345 
268 349 345 
268 272 349 
333 351 271 
272 352 349 
351 352 271 
271 352 272 
275 323 354 
275 354 276 
276 354 355 
276 355 281 
277 286 356 
310 277 356 
363 282 281 
363 281 355 
364 284 282 
364 282 363 
365 286 284 
365 284 364 
356 286 367 
367 286 365 
378 298 305 
378 323 298 
388 305 331 
388 378 305 
389 311 306 
312 389 306 
337 309 391 
309 320 391 
310 356 392 
312 310 392 
389 393 311 
393 321 311 
389 312 394 
312 392 394 
391 320 403 
320 321 403 
393 404 321 
403 321 404 
406 323 378 
323 406 354 
411 331 345 
411 388 331 
337 413 333 
413 351 333 
413 337 418 
337 391 418 
345 426 411 
345 349 426 
349 432 426 
349 352 432 
413 433 351 
352 434 432 
433 434 351 
351 434 352 
354 406 435 
354 435 355 
355 435 436 
355 436 363 
356 367 439 
392 356 439 
444 364 363 
444 363 436 
445 365 364 
445 364 444 
446 367 365 
446 365 445 
439 367 448 
448 367 446 
461 378 388 
461 406 378 
468 388 411 
468 461 388 
469 393 389 
394 469 389 
418 391 470 
391 403 470 
392 439 471 
394 392 471 
469 474 393 
474 404 393 
469 394 475 
394 471 475 
470 403 484 
403 404 484 
474 485 404 
484 404 485 
486 406 461 
406 486 435 
490 411 426 
490 468 411 
418 491 413 
491 433 413 
491 418 492 
418 470 492 
426 503 490 
426 432 503 
432 510 503 
432 434 510 
491 511 433 
434 512 510 
511 512 433 
433 512 434 
435 486 513 
435 513 436 
436 513 514 
436 514 444 
439 448 516 
471 439 516 
519 445 444 
519 444 514 
522 446 445 
522 445 519 
523 448 446 
523 446 522 
516 448 525 
525 448 523 
535 461 468 
535 486 461 
542 468 490 
542 535 468 
543 474 469 
475 543 469 
492 470 545 
470 484 545 
471 516 546 
475 471 546 
543 548 474 
548 485 474 
543 475 549 
475 546 549 
545 484 562 
484 485 562 
548 563 485 
562 485 563 
564 486 535 
486 564 513 
568 490 503 
568 542 490 
492 569 491 
569 511 491 
569 492 571 
492 545 571 
503 581 568 
503 510 581 
510 588 581 
510 512 588 
569 590 511 
512 591 588 
590 591 511 
511 591 512 
513 564 592 
513 592 514 
514 592 593 
514 593 519 
516 525 594 
546 516 594 
596 522 519 
596 519 593 
598 523 522 
598 522 596 
599 525 523 
599 523 598 
594 525 601 
601 525 599 
609 535 542 
609 564 535 
614 542 568 
614 609 542 
617 548 543 
549 617 543 
571 545 619 
545 562 619 
546 594 620 
549 546 620 
617 621 548 
621 563 548 
621 622 563 
617 549 624 
549 620 624 
619 562 636 
562 563 636 
636 563 622 
639 564 609 
564 639 592 
644 568 581 
644 614 568 
571 645 569 
645 590 569 
645 571 646 
571 619 646 
581 653 644 
581 588 653 
588 661 653 
588 591 661 
645 662 590 
591 663 661 
662 663 590 
590 663 591 
592 639 664 
592 664 593 
593 664 666 
593 666 596 
594 601 667 
620 594 667 
669 598 596 
669 596 666 
671 599 598 
671 598 669 
672 601 599 
672 599 671 
667 601 674 
674 601 672 
682 609 614 
682 639 609 
687 614 644 
687 682 614 
690 621 617 
624 690 617 
646 619 691 
619 636 691 
691 636 692 
636 622 692 
620 667 693 
624 620 693 
690 694 621 
694 622 621 
694 695 622 
692 622 695 
690 624 698 
624 693 698 
715 639 682 
639 715 664 
722 644 653 
722 687 644 
646 724 645 
724 662 645 
724 646 725 
646 691 725 
653 731 722 
653 661 731 
661 738 731 
661 663 738 
724 739 662 
663 740 738 
739 740 662 
662 740 663 
664 715 741 
664 741 666 
666 741 743 
666 743 669 
667 674 746 
693 667 746 
747 671 669 
747 669 743 
750 672 671 
750 671 747 
751 674 672 
751 672 750 
746 674 753 
753 674 751 
760 682 687 
760 715 682 
763 687 722 
763 760 687 
764 694 690 
698 764 690 
725 691 765 
691 692 765 
765 692 766 
692 695 766 
693 746 767 
698 693 767 
764 768 694 
768 695 694 
768 769 695 
766 695 769 
764 698 773 
698 767 773 
788 715 760 
715 788 741 
794 722 731 
794 763 722 
725 795 724 
795 739 724 
795 725 796 
725 765 796 
731 800 794 
731 738 800 
738 808 800 
738 740 808 
795 809 739 
740 810 808 
809 810 739 
739 810 740 
741 788 811 
741 811 743 
743 811 815 
743 815 747 
746 753 818 
767 746 818 
820 750 747 
820 747 815 
822 751 750 
822 750 820 
823 753 751 
823 751 822 
818 753 824 
824 753 823 
828 760 763 
828 788 760 
833 763 794 
833 828 763 
834 768 764 
773 834 764 
796 765 836 
765 766 836 
836 766 837 
766 769 837 
767 818 838 
773 767 838 
834 839 768 
839 769 768 
839 840 769 
837 769 840 
834 773 841 
773 838 841 
860 788 828 
788 860 811 
868 794 800 
868 833 794 
796 869 795 
869 809 795 
869 796 870 
796 836 870 
800 873 868 
800 808 873 
808 878 873 
808 810 878 
869 879 809 
810 880 878 
879 880 809 
809 880 810 
811 860 882 
811 882 815 
815 882 888 
815 888 820 
818 824 891 
838 818 891 
893 822 820 
893 820 888 
894 823 822 
894 822 893 
895 824 823 
895 823 894 
891 824 896 
896 824 895 
900 828 833 
900 860 828 
903 833 868 
903 900 833 
904 839 834 
841 904 834 
870 836 905 
836 837 905 
905 837 906 
837 840 906 
838 891 907 
841 838 907 
904 909 839 
909 840 839 
909 911 840 
906 840 911 
904 841 912 
841 907 912 
934 860 900 
860 934 882 
944 868 873 
944 903 868 
870 905 946 
947 870 946 
870 947 869 
947 879 869 
873 949 944 
873 878 949 
878 954 949 
878 880 954 
947 955 879 
880 957 954 
955 957 879 
879 957 880 
882 934 960 
882 960 888 
888 960 964 
888 964 893 
891 896 966 
907 891 966 
967 894 893 
967 893 964 
968 895 894 
968 894 967 
969 896 895 
969 895 968 
966 896 971 
971 896 969 
976 900 903 
976 934 900 
979 903 944 
979 976 903 
981 909 904 
912 981 904 
946 905 982 
905 906 982 
982 906 983 
906 911 983 
907 966 984 
912 907 984 
981 987 909 
987 911 909 
987 988 911 
983 911 988 
981 912 989 
912 984 989 
1010 934 976 
934 1010 960 
1020 944 949 
1020 979 944 
946 982 1022 
1023 946 1022 
946 1023 947 
1023 955 947 
949 1027 1020 
949 954 1027 
954 1029 1027 
954 957 1029 
1023 1031 955 
957 1032 1029 
1031 1032 955 
955 1032 957 
960 1010 1036 
960 1036 964 
964 1036 1038 
964 1038 967 
966 971 1042 
984 966 1042 
1045 968 967 
1045 967 1038 
1046 969 968 
1046 968 1045 
1047 971 969 
1047 969 1046 
1042 971 1048 
1048 971 1047 
1053 976 979 
1053 1010 976 
1055 979 1020 
1055 1053 979 
1058 987 981 
989 1058 981 
1022 982 1060 
982 983 1060 
1060 983 1061 
983 988 1061 
1061 988 1062 
984 1042 1064 
989 984 1064 
1067 1062 988 
1058 1067 987 
1067 988 987 
1058 989 1068 
989 1064 1068 
1085 1010 1053 
1010 1085 1036 
1022 1060 1100 
1105 1020 1027 
1105 1055 1020 
1107 1022 1100 
1022 1107 1023 
1107 1031 1023 
1027 1112 1105 
1027 1029 1112 
1107 1114 1031 
1029 1115 1112 
1029 1032 1115 
1032 1116 1115 
1114 1116 1031 
1031 1116 1032 
1036 1085 1120 
1036 1120 1038 
1038 1120 1123 
1038 1123 1045 
1042 1048 1126 
1064 1042 1126 
1130 1046 1045 
1130 1045 1123 
1131 1047 1046 
1131 1046 1130 
1132 1048 1047 
1132 1047 1131 
1126 1048 1134 
1134 1048 1132 
1137 1053 1055 
1137 1085 1053 
1140 1055 1105 
1140 1137 1055 
1141 1067 1058 
1068 1141 1058 
1141 1142 1067 
1142 1062 1067 
1142 1144 1062 
1100 1060 1145 
1060 1061 1145 
1145 1061 1146 
1061 1062 1146 
1146 1062 1144 
1064 1126 1148 
1068 1064 1148 
1141 1068 1151 
1068 1148 1151 
1168 1085 1137 
1085 1168 1120 
1100 1181 1107 
1181 1114 1107 
1181 1100 1182 
1100 1145 1182 
1190 1105 1112 
1190 1140 1105 
1181 1194 1114 
1194 1195 1114 
1114 1195 1116 
1112 1196 1190 
1112 1115 1196 
1115 1197 1196 
1115 1116 1197 
1116 1195 1197 
1120 1168 1201 
1120 1201 1123 
1123 1201 1202 
1123 1202 1130 
1126 1134 1205 
1148 1126 1205 
1209 1131 1130 
1209 1130 1202 
1205 1134 1210 
1211 1132 1131 
1211 1131 1209 
1210 1134 1212 
1212 1134 1132 
1212 1132 1211 
1213 1137 1140 
1213 1168 1137 
1216 1140 1190 
1216 1213 1140 
1219 1142 1141 
1151 1219 1141 
1219 1220 1142 
1220 1144 1142 
1220 1221 1144 
1146 1144 1222 
1222 1144 1221 
1182 1145 1224 
1145 1146 1224 
1224 1146 1222 
1148 1205 1227 
1151 1148 1227 
1219 1151 1229 
1151 1227 1229 
1205 1210 1230 
1227 1205 1230 
1246 1168 1213 
1168 1246 1201 
1182 1257 1181 
1257 1194 1181 
1257 1182 1258 
1182 1224 1258 
1267 1190 1196 
1267 1216 1190 
1257 1270 1194 
1270 1271 1194 
1194 1271 1195 
1197 1195 1273 
1195 1271 1273 
1196 1274 1267 
1196 1197 1274 
1197 1273 1274 
1201 1246 1277 
1201 1277 1202 
1202 1277 1278 
1202 1278 1209 
1284 1211 1209 
1284 1209 1278 
1230 1210 1286 
1286 1210 1287 
1287 1210 1212 
1287 1212 1288 
1288 1212 1211 
1288 1211 1284 
1292 1213 1216 
1292 1246 1213 
1295 1216 1267 
1295 1292 1216 
1298 1220 1219 
1229 1298 1219 
1298 1299 1220 
1299 1221 1220 
1299 1300 1221 
1222 1221 1302 
1302 1221 1300 
1258 1224 1303 
1224 1222 1303 
1303 1222 1302 
1227 1230 1309 
1229 1227 1309 
1298 1229 1310 
1229 1309 1310 
1230 1286 1312 
1309 1230 1312 
1258 1303 1319 
1302 1300 1321 
1321 1300 1320 
1330 1246 1292 
1246 1330 1277 
1338 1258 1319 
1258 1338 1257 
1338 1270 1257 
1347 1267 1274 
1347 1295 1267 
1338 1351 1270 
1351 1352 1270 
1270 1352 1271 
1273 1271 1354 
1271 1352 1354 
1274 1355 1347 
1274 1273 1355 
1273 1354 1355 
1277 1330 1359 
1277 1359 1278 
1312 1286 1360 
1278 1359 1361 
1278 1361 1284 
1366 1288 1284 
1366 1284 1361 
1360 1286 1367 
1367 1286 1287 
1367 1287 1368 
1368 1287 1288 
1368 1288 1366 
1370 1292 1295 
1370 1330 1292 
1373 1295 1347 
1373 1370 1295 
1380 1299 1298 
1310 1380 1298 
1381 1320 1300 
1380 1381 1299 
1381 1300 1299 
1319 1303 1383 
1303 1302 1383 
1383 1302 1321 
1309 1312 1392 
1310 1309 1392 
1393 1381 1380 
1380 1310 1395 
1310 1392 1395 
1395 1393 1380 
1312 1360 1397 
1392 1312 1397 
1319 1406 1338 
1406 1351 1338 
1393 1407 1381 
1407 1320 1381 
1408 1407 1393 
1407 1409 1320 
1406 1319 1410 
1319 1383 1410 
1321 1320 1412 
1412 1320 1409 
1410 1383 1413 
1383 1321 1413 
1413 1321 1412 
1418 1330 1370 
1330 1418 1359 
1406 1419 1351 
1419 1427 1351 
1351 1427 1352 
1433 1347 1355 
1433 1373 1347 
1354 1352 1436 
1352 1427 1436 
1355 1437 1433 
1355 1354 1437 
1354 1436 1437 
1397 1360 1438 
1359 1418 1440 
1359 1440 1361 
1438 1360 1441 
1441 1360 1367 
1361 1440 1443 
1361 1443 1366 
1445 1368 1366 
1445 1366 1443 
1441 1367 1446 
1446 1367 1368 
1446 1368 1445 
1448 1370 1373 
1448 1418 1370 
1449 1373 1433 
1449 1448 1373 
1392 1397 1471 
1395 1392 1471 
1393 1395 1472 
1395 1471 1472 
1472 1408 1393 
1397 1438 1474 
1471 1397 1474 
1471 1474 1475 
1472 1471 1475 
1408 1472 1478 
1472 1475 1478 
1410 1487 1406 
1487 1419 1406 
1408 1490 1407 
1490 1409 1407 
1492 1490 1408 
1478 1492 1408 
1490 1493 1409 
1412 1409 1495 
1495 1409 1493 
1487 1410 1496 
1410 1413 1496 
1496 1413 1497 
1413 1412 1497 
1497 1412 1495 
1475 1474 1498 
1474 1438 1499 
1474 1499 1498 
1504 1418 1448 
1418 1504 1440 
1487 1508 1419 
1508 1509 1419 
1419 1509 1427 
1436 1427 1514 
1427 1509 1514 
1518 1433 1437 
1518 1449 1433 
1437 1519 1518 
1437 1436 1519 
1436 1514 1519 
1499 1438 1520 
1520 1438 1441 
1440 1504 1524 
1440 1524 1443 
1520 1441 1525 
1525 1441 1446 
1443 1524 1526 
1443 1526 1445 
1525 1446 1527 
1527 1446 1445 
1527 1445 1526 
1528 1448 1449 
1528 1504 1448 
1531 1449 1518 
1531 1528 1449 
1475 1498 1545 
1478 1475 1545 
1563 1478 1545 
1478 1563 1492 
1496 1570 1487 
1570 1508 1487 
1574 1571 1493 
1492 1574 1490 
1574 1493 1490 
1575 1574 1492 
1563 1575 1492 
1495 1493 1580 
1580 1493 1571 
1497 1495 1583 
1583 1495 1580 
1570 1496 1584 
1496 1497 1584 
1584 1497 1583 
1545 1498 1586 
1498 1499 1588 
1498 1588 1586 
1586 1588 1589 
1588 1499 1590 
1590 1499 1520 
1596 1504 1528 
1504 1596 1524 
1597 1598 1579 
1545 1586 1599 
1563 1545 1599 
1570 1601 1508 
1601 1602 1508 
1508 1602 1509 
1514 1509 1607 
1509 1602 1607 
1519 1514 1610 
1514 1607 1610 
1611 1518 1519 
1611 1531 1518 
1519 1610 1611 
1590 1520 1612 
1612 1520 1525 
1524 1596 1615 
1524 1615 1526 
1612 1525 1616 
1616 1525 1527 
1526 1615 1618 
1526 1618 1527 
1616 1527 1618 
1620 1528 1531 
1620 1596 1528 
1623 1531 1611 
1623 1620 1531 
1645 1646 1647 
1586 1589 1648 
1599 1648 1646 
1599 1586 1648 
1646 1648 1647 
1563 1599 1652 
1652 1575 1563 
1645 1652 1646 
1652 1599 1646 
1652 1645 1653 
1584 1657 1570 
1657 1601 1570 
1661 1652 1653 
1652 1661 1575 
1597 1579 1662 
1580 1571 1663 
1661 1664 1575 
1661 1662 1664 
1575 1664 1574 
1664 1571 1574 
1664 1665 1571 
1662 1579 1665 
1663 1571 1665 
1662 1665 1664 
1675 1579 1598 
1663 1665 1676 
1676 1579 1675 
1676 1665 1579 
1677 1663 1676 
1583 1580 1682 
1682 1663 1677 
1682 1580 1663 
1684 1584 1583 
1684 1583 1682 
1584 1684 1657 
1684 1687 1657 
1648 1589 1688 
1648 1688 1647 
1589 1588 1691 
1691 1588 1590 
1688 1589 1692 
1692 1589 1691 
1691 1590 1693 
1693 1590 1612 
1697 1596 1620 
1596 1697 1615 
1675 1598 1699 
1661 1653 1702 
1702 1662 1661 
1702 1597 1662 
1699 1598 1703 
1597 1704 1598 
1598 1704 1703 
1597 1702 1704 
1653 1645 1709 
1653 1709 1702 
1702 1710 1704 
1709 1710 1702 
1687 1711 1657 
1657 1711 1601 
1711 1712 1601 
1601 1712 1602 
1607 1602 1715 
1602 1712 1715 
1610 1607 1718 
1607 1715 1718 
1719 1611 1610 
1719 1623 1611 
1610 1718 1719 
1693 1612 1720 
1720 1612 1616 
1615 1697 1722 
1615 1722 1618 
1618 1722 1723 
1618 1723 1616 
1720 1616 1723 
1726 1620 1623 
1726 1697 1620 
1727 1623 1719 
1727 1726 1623 
1647 1744 1645 
1645 1744 1709 
1709 1745 1710 
1744 1745 1709 
1647 1688 1746 
1744 1747 1745 
1647 1746 1749 
1647 1749 1744 
1749 1747 1744 
1684 1682 1766 
1766 1687 1684 
1766 1682 1677 
1768 1766 1677 
1768 1677 1676 
1676 1772 1768 
1676 1675 1772 
1675 1699 1772 
1687 1780 1711 
1780 1782 1711 
1711 1782 1712 
1766 1783 1687 
1783 1780 1687 
1783 1766 1784 
1766 1768 1784 
1784 1768 1785 
1768 1772 1785 
1772 1786 1785 
1772 1699 1786 
1783 1784 1787 
1784 1785 1787 
1746 1688 1790 
1790 1688 1692 
1749 1746 1791 
1749 1791 1747 
1692 1691 1792 
1792 1691 1693 
1790 1692 1793 
1793 1692 1792 
1792 1693 1794 
1693 1720 1794 
1796 1697 1726 
1697 1796 1722 
1801 1699 1703 
1786 1699 1801 
1801 1703 1804 
1704 1804 1703 
1704 1710 1804 
1804 1710 1809 
1710 1745 1809 
1715 1712 1811 
1712 1782 1811 
1718 1715 1815 
1715 1811 1815 
1817 1719 1718 
1817 1727 1719 
1718 1815 1817 
1723 1818 1720 
1818 1794 1720 
1722 1796 1821 
1722 1821 1723 
1723 1821 1818 
1825 1726 1727 
1825 1796 1726 
1826 1727 1817 
1826 1825 1727 
1809 1745 1836 
1745 1747 1836 
1791 1746 1837 
1837 1746 1790 
1836 1747 1838 
1747 1791 1838 
1787 1862 1783 
1783 1862 1780 
1862 1863 1780 
1780 1863 1782 
1811 1782 1864 
1782 1863 1864 
1868 1786 1801 
1785 1869 1787 
1785 1786 1869 
1869 1786 1868 
1787 1872 1862 
1872 1787 1873 
1787 1869 1873 
1872 1874 1862 
1862 1874 1863 
1790 1793 1876 
1877 1837 1790 
1876 1877 1790 
1791 1878 1838 
1878 1791 1837 
1877 1878 1837 
1793 1792 1879 
1793 1879 1876 
1879 1792 1794 
1818 1880 1794 
1794 1880 1879 
1881 1796 1825 
1796 1881 1821 
1885 1801 1804 
1868 1801 1885 
1804 1886 1885 
1804 1809 1886 
1886 1809 1889 
1809 1836 1889 
1815 1811 1893 
1811 1864 1893 
1826 1817 1895 
1815 1895 1817 
1815 1893 1895 
1821 1881 1898 
1821 1898 1818 
1818 1898 1880 
1901 1825 1826 
1901 1881 1825 
1902 1826 1895 
1902 1901 1826 
1889 1836 1911 
1836 1838 1911 
1878 1911 1838 
1924 1868 1885 
1864 1863 1927 
1863 1874 1927 
1893 1864 1928 
1864 1927 1928 
1930 1868 1924 
1930 1869 1868 
1873 1869 1930 
1931 1873 1930 
1927 1874 1933 
1874 1934 1933 
1872 1873 1934 
1872 1934 1874 
1934 1873 1931 
1935 1876 1879 
1937 1877 1876 
1937 1876 1935 
1878 1938 1911 
1938 1878 1877 
1937 1938 1877 
1880 1939 1879 
1935 1879 1939 
1898 1940 1880 
1880 1940 1939 
1941 1881 1901 
1881 1941 1898 
1898 1941 1940 
1886 1943 1885 
1886 1889 1943 
1924 1885 1943 
1945 1943 1889 
1911 1945 1889 
1948 1902 1895 
1895 1893 1948 
1893 1928 1948 
1952 1902 1948 
1952 1953 1902 
1953 1901 1902 
1953 1941 1901 
1911 1959 1945 
1911 1938 1959 
1964 1948 1928 
1924 1943 1966 
1930 1924 1966 
1968 1964 1928 
1928 1927 1968 
1927 1933 1968 
1966 1969 1930 
1969 1931 1930 
1970 1968 1933 
1934 1970 1933 
1969 1970 1931 
1970 1934 1931 
1971 1937 1935 
1971 1935 1939 
1938 1973 1959 
1973 1938 1937 
1971 1973 1937 
1940 1974 1939 
1939 1974 1971 
1975 1941 1953 
1941 1975 1940 
1940 1975 1974 
1976 1966 1943 
1976 1943 1977 
1945 1977 1943 
1945 1959 1977 
1952 1948 1979 
1964 1979 1948 
1982 1952 1979 
1982 1953 1952 
1982 1975 1953 
1959 1984 1977 
1959 1973 1984 
1986 1979 1964 
1968 1986 1964 
1987 1966 1976 
1987 1969 1966 
1968 1988 1986 
1970 1988 1968 
1987 1988 1969 
1988 1970 1969 
1974 1989 1971 
1973 1990 1984 
1990 1973 1971 
1990 1971 1989 
1991 1975 1982 
1975 1991 1974 
1974 1991 1989 
1992 1976 1977 
1977 1984 1992 
1992 1987 1976 
1979 1993 1982 
1986 1993 1979 
1993 1994 1982 
1994 1991 1982 
1984 1995 1992 
1984 1990 1995 
1986 1996 1993 
1988 1996 1986 
1992 1996 1987 
1996 1988 1987 
1997 1991 1994 
1990 1997 1995 
1991 1997 1989 
1997 1990 1989 
1993 1998 1994 
1998 1997 1994 
1996 1998 1993 
1998 1992 1995 
1998 1996 1992 
1997 1998 1995 
