0 1 
4 0 
0 7 
1 25 
25 24 
24 30 
30 31 
31 3 
3 35 
3 42 
44 4 
7 50 
51 44 
60 51 
35 95 
42 104 
106 60 
50 123 
95 169 
169 177 
177 178 
104 205 
209 106 
223 209 
123 230 
178 290 
205 326 
330 223 
331 330 
230 354 
290 407 
407 411 
411 412 
326 487 
494 331 
342 495 
495 494 
508 342 
342 521 
535 508 
536 535 
354 538 
582 536 
584 582 
412 593 
593 594 
487 684 
521 719 
538 736 
594 784 
784 584 
684 885 
719 922 
736 938 
784 992 
885 1087 
922 1120 
938 1137 
992 1201 
1087 1284 
1120 1314 
1137 1334 
1201 1404 
1284 1484 
1334 1494 
1314 1516 
1404 1597 
1484 1677 
1494 1687 
1516 1713 
1597 1807 
1677 1873 
1687 1889 
1713 1918 
1807 2010 
1873 2077 
1889 2096 
1918 2127 
2010 2219 
2077 2270 
2096 2299 
2127 2332 
2219 2412 
2270 2459 
2299 2491 
2332 2527 
2412 2617 
2459 2655 
2491 2695 
2695 2705 
2527 2735 
2617 2823 
2655 2850 
2705 2891 
2735 2946 
2823 3030 
2850 3036 
2891 3086 
3086 3087 
2946 3150 
3030 3239 
3036 3249 
3087 3298 
3150 3362 
3298 3387 
3239 3470 
3249 3479 
3479 3481 
3387 3528 
3528 3527 
3362 3593 
3527 3630 
3481 3666 
3666 3670 
3470 3709 
3630 3760 
3593 3825 
3670 3882 
3882 3883 
3883 3884 
3709 3945 
3760 3998 
3998 3761 
4007 3996 
3761 4008 
4008 4007 
4011 3761 
3825 4077 
3884 4149 
4149 4150 
3945 4205 
3996 4256 
4256 4134 
4273 4011 
4077 4338 
4150 4398 
4134 4398 
4205 4465 
4528 4273 
4338 4595 
4398 4648 
4465 4709 
4763 4528 
4595 4825 
4648 4868 
4709 4921 
4974 4763 
4825 5028 
4868 5065 
4921 5113 
5147 4974 
5028 5207 
5065 5238 
5113 5274 
5294 5147 
5207 5348 
5348 5365 
5372 5294 
5365 5382 
5387 5372 
5238 5400 
5274 5426 
5382 5508 
5516 5387 
5508 5519 
5520 5516 
5400 5528 
5426 5552 
5619 5520 
5519 5619 
5528 5627 
5552 5644 
5688 5619 
5627 5695 
5644 5706 
5729 5688 
5695 5733 
5706 5742 
5757 5729 
5733 5762 
5742 5766 
5770 5757 
5762 5774 
5766 5775 
5776 5770 
5774 5777 
5775 5777 
5777 5776 
